MSSC 6250 - Spring 2025 - Dimension Reduction r fontawesome::fa("layer-group")
…
Dimension reduction for effective data visualization or extracting most important information those features contain.

plot a bunch of points of \(\boldsymbol{x} = (x_1, x_2, \dots, x_p)\) in a 2-D scatter plot (manifold). (reduce dimension from \(p\) to 2)

 use 2 variables to explain most variations or represents high data density in the \(p\) variables 

Clustering discovers unknown subgroups/clusters in data

find 3 sub-groups of people based on variables income, occupation, age, etc

Background: Dimensions

One-Dimension (1D) Number line

# A tibble: 50 × 1
   English
     <int>
 1      41
 2      65
 3      55
 4      94
 5      66
 6      85
 7      44
 8      44
 9      67
10      73
# ℹ 40 more rows
…
Let’s go back to your first grade. You remember that one-dimension equals a number line.

Now suppose we have 50 English grades. The first 3 scores are 41, 65, and 55.

We can plot these values on the number line just like we did in the elementary school.

1st student with score 41 it’s a dot at 41, 2nd student with score 65, it’s a dot at 65, and so on.

One-Dimension (1D) Number line: Uniform students

# A tibble: 50 × 1
   English
     <int>
 1      41
 2      65
 3      55
 4      94
 5      66
 6      85
 7      44
 8      44
 9      67
10      73
# ℹ 40 more rows
…
If you plot all students scores, we might see something like this: an uniform distribution of English scores.

1D Number line: Non-uniform students

# A tibble: 50 × 1
   English
     <int>
 1      77
 2      78
 3      81
 4      78
 5      52
 6      62
 7      47
 8      58
 9      43
10      59
# ℹ 40 more rows
…
Or we might get a non-uniform distribution of English scores. Some students obtain a very high grade, but some students are falling behind and get a very low grade.

Two-Dimensions (2D) X-Y Scatter plot: High Correlated

English and Math measure an overall academic performance.

# A tibble: 50 × 2
   English  Math
     <int> <dbl>
 1      41  33.2
 2      65  63.6
 3      55  44.6
 4      94  95  
 5      66  65.6
 6      85  73.1
 7      44  46.6
 8      44  51  
 9      67  69.4
10      73  66.5
# ℹ 40 more rows
…
Now we have two axes instead of one, and now we can plot data from two different subjects instead of just one.

Additional to English scores, here we also have Math scores of some students.

And we all know how to map a English and math score pair to a point on a 2D plot.

If we put all students English and Math scores on the plot, we might see something like this that English and Math scores are positively correlated, meaning that a student having high English score tends to have high Math score too.

This might be due to the fact that English and Math measure an overall academic performance. A good student tends to have both high English and Math scores.

Two-Dimensions (2D) X-Y Scatter plot: No correlated

English and Math measure different abilities.

# A tibble: 50 × 2
   English  Math
     <int> <int>
 1      41    27
 2      65    47
 3      55    32
 4      94    44
 5      66    20
 6      85    30
 7      44    16
 8      44    72
 9      67    86
10      73    82
# ℹ 40 more rows
…
Or we might see English and Math scores are not correlated, meaning that a high English score does not tell us anything about Math score, whether it is high or low.

Because English and Math might measure different abilities.

English measures verbal and communication skills and Math measures logic and quantitative skills

Three-Dimensions (3D) X-Y-Z Scatter plot

# A tibble: 50 × 3
   English  Math Biology
     <int> <dbl>   <dbl>
 1      41  33.2    39.2
 2      65  63.6    61.6
 3      55  44.6    41.6
 4      94  95      92  
 5      66  65.6    73.6
 6      85  73.1    71.1
 7      44  46.6    56.6
 8      44  51      56  
 9      67  69.4    79.4
10      73  66.5    59.5
# ℹ 40 more rows
…
So now we have three subjects, English, Math and Biology.

With the same logic as 2D plot, we put English score on X-axis, Math score on Y-axis, and biology score on Z-axis, then draw lines perpendicular to each axis to put the point in the 3D space.

And this is our 3D scatter plot.

So, if we have one subject data, we can make a 1D graph.

If we have two subject data, we can make a 2D graph.

If we have three subject data, we can make a 3D graph.

Four-Dimension (4D) X-Y-Z-? Scatter plot

# A tibble: 50 × 4
   English  Math Biology History
     <int> <dbl>   <dbl>   <dbl>
 1      41  33.2    39.2      51
 2      65  63.6    61.6      53
 3      55  44.6    41.6      63
 4      94  95      92        83
 5      66  65.6    73.6      51
 6      85  73.1    71.1      74
 7      44  46.6    56.6      34
 8      44  51      56        33
 9      67  69.4    79.4      76
10      73  66.5    59.5      74
# ℹ 40 more rows
…
The concept of interesting/important is measured by the amount that the observations vary along each dimension.

PCA is a dimension reduction tool that finds a low-dimensional representation of a data set that contains as much as possible of variation stored in the data set.

As we’ve seen before, each of the observations lives in a high-dimensional space, meaning that each observation has lots of variables associated with it, but not all of these dimensions (variables) are equally interesting/important.

The concept of interesting/important is measured by the amount that the observations vary along each dimension.

A characteristic or attribute of observations is called variable because its value varies from sample to sample.

If the variable does not vary, it becomes an irrelevant or un-important variable because we cannot use the variable to differentiate or distinguish observations. If everyone in this class gets grade A, then the data science grade is not an important variable to learn which students perform academically better than others.

PCA Illustration: 2 Variable Example

# A tibble: 50 × 2
   English  Math
     <int> <dbl>
 1      41  33.2
 2      65  63.6
 3      55  44.6
 4      94  95  
 5      66  65.6
 6      85  73.1
 7      44  46.6
 8      44  51  
 9      67  69.4
10      73  66.5
11      47  58.9
12      66  66.5
13      57  51  
14      57  33.2
15      77  83.6
16      83  78.8
# ℹ 34 more rows
…
